[
    {
        "datum": "14.06.2018",
        "konverzije": [
            {
                "iznos": "10",
                "valuta": "Euro",
                "kurs": "srednji",
                "vrednost": "118.1668",
                "total": "1181.668"
            },
            {
                "iznos": "5",
                "valuta": "Swiss Franc",
                "kurs": "kupovni",
                "vrednost": "101.2568",
                "total": "506.284"
            },
            {
                "iznos": "100",
                "valuta": "British Pound",
                "kurs": "prodajni",
                "vrednost": "134.4236",
                "total": "13442.36"
            },
            {
                "iznos": "7",
                "valuta": "US Dollar",
                "kurs": "kupovni",
                "vrednost": "99.7648",
                "total": "698.3536"
            }
        ]
    },
    {
        "datum": "15.06.2018",
        "konverzije": [
            {
                "iznos": "100",
                "valuta": "British Pound",
                "kurs": "kupovni",
                "vrednost": "133.6194",
                "total": "13361.94"
            },
            {
                "iznos": "2",
                "valuta": "Swiss Franc",
                "kurs": "kupovni",
                "vrednost": "101.2568",
                "total": "202.5136"
            },
            {
                "iznos": "1000",
                "valuta": "Euro",
                "kurs": "srednji",
                "vrednost": "118.1668",
                "total": "118166.8"
            },
            {
                "iznos": "10",
                "valuta": "Australian Dollar",
                "kurs": "prodajni",
                "vrednost": "75.912",
                "total": "759.12"
            },
            {
                "iznos": "10",
                "valuta": "Australian Dollar",
                "kurs": "srednji",
                "vrednost": "75.6849",
                "total": "756.849"
            },
            {
                "iznos": "3",
                "valuta": "Swiss Franc",
                "kurs": "prodajni",
                "vrednost": "101.8662",
                "total": "305.5986"
            },
            {
                "iznos": "5",
                "valuta": "British Pound",
                "kurs": "srednji",
                "vrednost": "134.0215",
                "total": "670.1075"
            },
            {
                "iznos": "1000",
                "valuta": "Canadian Dollar",
                "kurs": "prodajni",
                "vrednost": "77.3688",
                "total": "77368.8"
            },
            {
                "iznos": "10",
                "valuta": "Japanese Yen",
                "kurs": "srednji",
                "vrednost": "",
                "total": "0"
            },
            {
                "iznos": "10",
                "valuta": "Japanese Yen",
                "kurs": "prodajni",
                "vrednost": "0.923768",
                "total": "9.23768"
            },
            {
                "iznos": "100",
                "valuta": "Russian ruble",
                "kurs": "srednji",
                "vrednost": "1.6336",
                "total": "163.36"
            },
            {
                "iznos": "100",
                "valuta": "Swedish Krona",
                "kurs": "srednji",
                "vrednost": "11.6758",
                "total": "1167.58"
            },
            {
                "iznos": "9",
                "valuta": "Australian Dollar",
                "kurs": "prodajni",
                "vrednost": "76.4969",
                "total": "688.4721"
            },
            {
                "iznos": "4",
                "valuta": "Russian ruble",
                "kurs": "srednji",
                "vrednost": "1.6336",
                "total": "6.5344"
            },
            {
                "iznos": "150",
                "valuta": "Japanese Yen",
                "kurs": "kupovni",
                "vrednost": "0.918242",
                "total": "137.7363"
            },
            {
                "iznos": "3",
                "valuta": "Canadian Dollar",
                "kurs": "prodajni",
                "vrednost": "78.0173",
                "total": "234.0519"
            },
            {
                "iznos": "1000",
                "valuta": "Russian ruble",
                "kurs": "srednji",
                "vrednost": "1.6336",
                "total": "1633.6"
            },
            {
                "iznos": "10",
                "valuta": "Canadian Dollar",
                "kurs": "srednji",
                "vrednost": "77.7839",
                "total": "777.839"
            },
            {
                "iznos": "2",
                "valuta": "Japanese Yen",
                "kurs": "kupovni",
                "vrednost": "0.918242",
                "total": "1.836484"
            },
            {
                "iznos": "2000",
                "valuta": "Japanese Yen",
                "kurs": "prodajni",
                "vrednost": "0.923768",
                "total": "1847.536"
            },
            {
                "iznos": "100",
                "valuta": "Russian ruble",
                "kurs": "srednji",
                "vrednost": "1.6336",
                "total": "163.36"
            },
            {
                "iznos": "13",
                "valuta": "Swedish Krona",
                "kurs": "prodajni",
                "vrednost": "11.7108",
                "total": "152.2404"
            },
            {
                "iznos": "4",
                "valuta": "Swiss Franc",
                "kurs": "srednji",
                "vrednost": "102.3313",
                "total": "409.3252"
            }
        ]
    }
]